Professor ID,First Name,Last Name,Department,Date,City,State,ZIP,Country Code,Biography
P01,Stefan,Freudenberg,Physics,"July 17, 2006",Hamburg,,21073,DE,"Part analyst, part troubleshooter, and part troublemaker, Stefan serves as Agaric's <em>secret weapon</em> and resident heretic."
P02,Benjamin,Melançon,Journalism,"August 12, 2008",Minneapolis,MN,55111,US,"Benjamin lives and works to <strong>connect people, ideas, and resources</strong> so more awesome things happen."
P03,Michele,Metts,Law,"September 12, 2010",Boston,MA,02111,US,Michele Metts has been a involved with <a href='http://drupal.org'>Drupal</a> since 2006.
